<?xml version="1.0" encoding="utf-8"?>
<!-- Generator: Adobe Illustrator 22.0.1, SVG Export Plug-In . SVG Version: 6.00 Build 0)  -->
<svg version="1.1" id="Layer_1" xmlns="http://www.w3.org/2000/svg" xmlns:xlink="http://www.w3.org/1999/xlink" x="0px" y="0px"
	 viewBox="0 0 86.2 107.9" style="enable-background:new 0 0 86.2 107.9;" xml:space="preserve">
<style type="text/css">
	.st0{fill:#FFFFFF;}
</style>
<g id="Layer_2_1_">
</g>
<g>
	<g>
		<path d="M14.8,19.7c-0.2,0.1-0.4,0.3-0.6,0.5c-0.8,0.8-1.4,1.9-1.5,3.1c-0.1,0.5-0.5,1-1,1c-1.2,0.2-2.2,0.7-3.1,1.5
			c-0.8,0.8-1.4,1.9-1.5,3.1c-0.1,0.5-0.5,1-1,1c-1.3,0.1-2.3,0.6-3.2,1.5l-0.1,0.1C1.6,33,1.2,35,1.9,36.8c0.7,1.6,2.1,2.6,3.8,2.7
			l3.6,0.4c1,0.1,2.1,0.3,3.3,0.6c-0.3,3.5,0.7,7,3.3,9.7l33.5,34.4c2.6,2.6,6.2,3.9,9.7,3.6c0.3,1.2,0.5,2.3,0.7,3.4l0.4,3.3
			c0.2,1.7,1.3,3.2,2.9,3.9c1.6,0.7,3.3,0.6,4.7-0.3c0.2-0.2,0.4-0.3,0.6-0.5c0.8-0.8,1.4-1.9,1.5-3.1c0.1-0.5,0.5-1,1-1
			c1.2-0.2,2.2-0.7,3.1-1.5c0.8-0.8,1.4-1.9,1.5-3.1c0.1-0.5,0.5-1,1-1c1.2-0.2,2.2-0.7,3.1-1.5l0.1-0.1c0.8-0.9,1.2-2.1,1.2-3.3
			c0-0.6-0.1-1.2-0.4-1.8c-0.7-1.7-2.1-2.7-3.8-2.9l-3.6-0.4c-1-0.1-2.2-0.3-3.3-0.6c0-0.4,0.1-0.8,0.1-1.2c0-3.1-1.1-6.1-3.4-8.5
			L32.9,33.6c-2.5-2.6-6.1-3.8-9.5-3.6c-0.3-1.2-0.5-2.3-0.7-3.4l-0.4-3.3c-0.2-1.8-1.3-3.3-2.9-4C17.9,18.5,16.2,18.7,14.8,19.7z
			 M69.1,80.3c1.2,0.3,2.4,0.5,3.6,0.6l3.6,0.4c1.1,0.1,1.5,0.9,1.6,1.2c0.2,0.6,0.3,1.6-0.4,2.4c-0.4,0.4-1,0.7-1.5,0.8
			c-1.7,0.2-3.1,1.6-3.4,3.4c-0.1,0.6-0.3,1.1-0.8,1.5c-0.4,0.4-1,0.7-1.5,0.8c-1.7,0.2-3.1,1.6-3.4,3.4c-0.1,0.6-0.3,1.1-0.8,1.5
			c-0.1,0.1-0.2,0.2-0.2,0.2c-0.6,0.4-1.4,0.5-2.1,0.1c-0.7-0.3-1.2-1-1.3-1.8l-0.2-3.3c-0.1-1.2-0.4-2.4-0.7-3.7
			c0.4-0.1,0.8-0.3,1.2-0.5h0.1c0.4-0.2,0.7-0.4,1.1-0.6v2.9c0,0.7,0.6,1.3,1.3,1.3s1.3-0.6,1.3-1.3v-2.4l1.5,1.5
			c0.5,0.5,1.4,0.5,1.9,0c0.3-0.3,0.4-0.6,0.4-0.9s-0.1-0.7-0.4-0.9l-1.5-1.5h2.4c0.7,0,1.3-0.6,1.3-1.3s-0.6-1.3-1.3-1.3H68
			c0,0,0-0.1,0.1-0.1c0.2-0.3,0.3-0.5,0.4-0.8c0.1-0.1,0.1-0.3,0.2-0.4c0.1-0.3,0.2-0.5,0.3-0.8C69.1,80.5,69.1,80.4,69.1,80.3z
			 M45.9,54.5c3.8,3.8,5.8,8,5.8,11c0,1.3-0.4,2.4-1.2,3.2c-2.7,2.7-8.8,0.6-14-4.9c-2.4-2.4-4.1-5.2-5.1-7.7
			c-1.1-2.8-0.8-5.2,0.6-6.6C34.6,47,40.5,49,45.9,54.5z M18.4,21.6c0.8,0.3,1.3,1,1.4,1.9l0.3,3.3c0.1,1.2,0.4,2.4,0.7,3.7
			c-0.1,0-0.2,0.1-0.3,0.1c-0.3,0.1-0.5,0.2-0.8,0.3c-0.1,0.1-0.3,0.1-0.4,0.2c-0.3,0.1-0.5,0.3-0.7,0.4c-0.1,0-0.1,0.1-0.2,0.1
			v-2.9c0-0.7-0.6-1.3-1.3-1.3s-1.3,0.6-1.3,1.3v2.4l-1.5-1.5c-0.5-0.5-1.4-0.5-1.9,0s-0.5,1.4,0,1.9l1.5,1.5h-2.4
			c-0.7,0-1.3,0.6-1.3,1.3s0.6,1.3,1.3,1.3h2.9c0,0.1-0.1,0.1-0.1,0.2c-0.2,0.3-0.3,0.5-0.4,0.8c-0.1,0.1-0.1,0.3-0.2,0.4
			c-0.1,0.3-0.2,0.6-0.3,0.9c0,0.1-0.1,0.1-0.1,0.2c-1.2-0.3-2.4-0.5-3.6-0.6L5.8,37c-1-0.1-1.4-0.7-1.6-1.1
			c-0.3-0.6-0.3-1.6,0.4-2.5c0.4-0.4,1-0.7,1.5-0.8c1.7-0.2,3.2-1.6,3.5-3.4c0.1-0.6,0.3-1.1,0.8-1.5c0.4-0.4,1-0.7,1.5-0.8
			c1.7-0.2,3.1-1.6,3.4-3.4c0.1-0.6,0.3-1.1,0.8-1.5c0.1-0.1,0.2-0.2,0.3-0.2C17.2,21.2,18.1,21.5,18.4,21.6z"/>
		<path d="M33.3,52.8c0,0.7,0.2,1.5,0.5,2.4c0.8,2.1,2.4,4.5,4.5,6.7c2.1,2.1,4.5,3.9,6.5,4.7c1.7,0.7,3.1,0.7,3.7,0.1
			c1.2-1.2,0-5.8-4.6-10.5c-2.1-2.1-4.5-3.9-6.5-4.7c-1.7-0.7-3.1-0.7-3.7-0.1C33.4,51.7,33.3,52.2,33.3,52.8z"/>
	</g>
	<g>
		<g>
			<path class="st0" d="M79.9,26.5L76.8,26L69,24.7c-0.2-0.6-0.5-1.2-0.9-1.8l1.6-3.9l1.7-4.2l0.9-2.3C76.8,15.7,79.6,21,79.9,26.5z
				"/>
			<path class="st0" d="M64.3,9.2l-0.7,1.6l-2,4.9l-1.5,3.8c-0.7,0.1-1.4,0.3-2,0.6l-3.3-2.5l-4.5-3.5l-0.9-0.7
				C53.5,10,58.9,8.4,64.3,9.2z"/>
			<polygon class="st0" points="40.5,64 31.2,61.9 30.7,61.8 33.2,54.2 33.7,54.3 43,56.4 43.4,56.5 40.9,64.2 			"/>
			<polygon class="st0" points="38.2,72.4 35.6,80 35.2,79.9 25.9,77.8 25.4,77.7 27.9,70.1 28.4,70.2 37.7,72.3 			"/>
			<polygon class="st0" points="45.7,48.1 36.4,46 35.9,45.9 38.4,38.3 38.9,38.4 48.2,40.5 48.6,40.6 46.1,48.3 			"/>
			<path class="st0" d="M51,32.2l-9.3-2.1L41.2,30l2.8-8.4c0.1-0.4,0.3-0.8,0.4-1.2l0.5,0.4l5.8,4.6l2,1.6l0.4,0.3l-1.7,5.1L51,32.2
				z"/>
			<path class="st0" d="M25.3,94.8c-2.7-0.9-4.2-3.9-3.3-6.6l0.7-2.2l0.5,0.1l9.3,2.1l0.4,0.1l-1,3.2C30.9,94.2,28,95.7,25.3,94.8z"
				/>
			<path class="st0" d="M70.8,41.2c-2.7-0.9-4.2-3.9-3.3-6.6l0.4-1.3l7.6,1.3l2.8,0.5L77.4,38C76.5,40.6,73.6,42.1,70.8,41.2z"/>
		</g>
		<path d="M68.7,5.7c-12-4-25,2.6-28.9,14.5l-22,66.6c-1.8,5,1,10.5,6.1,12.2s10.6-1.1,12.2-6.1l22-66.6c0.6-1.9,2.6-2.9,4.5-2.2
			c1.9,0.6,2.9,2.6,2.3,4.5l-1.6,4.7c-1.7,5.1,1.1,10.6,6.1,12.2c5.1,1.7,10.6-1.1,12.2-6.1l1.6-4.7C87.2,22.6,80.7,9.6,68.7,5.7z
			 M79.9,26.5L76.8,26L69,24.7c-0.2-0.6-0.5-1.2-0.9-1.8l1.6-3.9l1.7-4.2l0.9-2.3C76.8,15.7,79.6,21,79.9,26.5z M64.3,9.2l-0.7,1.6
			l-2,4.9l-1.5,3.8c-0.7,0.1-1.4,0.3-2,0.6l-3.3-2.5l-4.5-3.5l-0.9-0.7C53.5,10,58.9,8.4,64.3,9.2z M40.5,64l-9.3-2.1l-0.5-0.1
			l2.5-7.6l0.5,0.1l9.3,2.1l0.4,0.1l-2.5,7.7L40.5,64z M38.2,72.4L35.6,80l-0.4-0.1l-9.3-2.1l-0.5-0.1l2.5-7.6l0.5,0.1l9.3,2.1
			L38.2,72.4z M45.7,48.1L36.4,46l-0.5-0.1l2.5-7.6l0.5,0.1l9.3,2.1l0.4,0.1l-2.5,7.7L45.7,48.1z M51,32.2l-9.3-2.1L41.2,30l2.8-8.4
			c0.1-0.4,0.3-0.8,0.4-1.2l0.5,0.4l5.8,4.6l2,1.6l0.4,0.3l-1.7,5.1L51,32.2z M25.3,94.8c-2.7-0.9-4.2-3.9-3.3-6.6l0.7-2.2l0.5,0.1
			l9.3,2.1l0.4,0.1l-1,3.2C30.9,94.2,28,95.7,25.3,94.8z M70.8,41.2c-2.7-0.9-4.2-3.9-3.3-6.6l0.4-1.3l7.6,1.3l2.8,0.5L77.4,38
			C76.5,40.6,73.6,42.1,70.8,41.2z"/>
	</g>
</g>
</svg>
