<?xml version="1.0" encoding="utf-8"?>
<!-- Generator: Adobe Illustrator 22.0.1, SVG Export Plug-In . SVG Version: 6.00 Build 0)  -->
<svg version="1.1" id="Layer_1" xmlns="http://www.w3.org/2000/svg" xmlns:xlink="http://www.w3.org/1999/xlink" x="0px" y="0px"
	 viewBox="0 0 86.2 107.9" style="enable-background:new 0 0 86.2 107.9;" xml:space="preserve">
<g id="Layer_2_1_">
</g>
<g>
	<path d="M56,64.4l2.3,1.7l16.2,12.5H45.3v18.2h-7.2V78.6H23.6c5.7-2.3,11.1-5.1,15.6-8.5c5.7-4,10.8-9.1,14.8-15l0.9,0.6L68,64.5
		L56,64.4L56,64.4z M52.9,71.8c-1.1,0-2.3,0.9-2.3,2c0,1.4,1.1,2.3,2.3,2.3c1.1,0,2-0.9,2-2.3C54.9,72.7,54,71.8,52.9,71.8z
		 M63.7,72.1c-1.1,0-2.3,0.9-2.3,2.3c0,1.1,1.1,2,2.3,2c1.2,0,2-0.9,2-2C65.7,72.9,64.8,72.1,63.7,72.1z M32.5,66.7
		c-1.1,0-2.3,1.1-2.3,2.3s1.1,2,2.3,2c1.2,0,2-0.9,2-2S33.6,66.7,32.5,66.7z M22.2,70.4c-1.4,0-2.3,1.1-2.3,2.3s0.9,2,2.3,2
		c1.1,0,2-0.9,2-2S23.4,70.4,22.2,70.4z M41.5,51.9c-1.1,0-2,0.9-2,2c0,1.4,0.9,2.3,2,2.3c1.4,0,2.3-0.9,2.3-2.3
		C43.8,52.8,43,51.9,41.5,51.9z M36.1,38.3c-1.1,0-2.3,1.1-2.3,2.3s1.1,2,2.3,2c1.1,0,2-0.9,2-2S37.3,38.3,36.1,38.3z M45.2,30.4
		c-1.1,0-2.3,0.9-2.3,2c0,1.1,1.1,2.3,2.3,2.3s2-1.1,2-2.3S46.4,30.4,45.2,30.4z M39.3,33.5l0.9-1.4h1.7L41,30.7l0.9-1.4h-1.8
		l-0.9-1.4l-0.9,1.4h-1.7l0.9,1.4l-0.9,1.4h1.7L39.3,33.5z M43,42l0.9-1.4h1.7l-0.9-1.4l0.9-1.4h-1.7L43,36.4l-0.9,1.4h-1.4l0.6,1.4
		l-0.6,1.4h1.4L43,42z M34.7,49.4l0.9-1.4H37l-0.6-1.4l0.6-1.4h-1.4l-0.9-1.4l-0.9,1.4h-1.7l0.9,1.4L32.1,48h1.7L34.7,49.4z
		 M48.6,54.5l0.9-1.4h1.7l-0.9-1.4l0.9-1.1h-1.7l-0.9-1.7l-0.9,1.7h-1.4l0.6,1.1l-0.6,1.4h1.4L48.6,54.5z M41.5,63l0.9-1.4h1.7
		l-0.9-1.4l0.9-1.2h-1.7l-0.9-1.7L40.6,59h-1.7l0.9,1.1l-0.9,1.4h1.7L41.5,63z M31,63.6l0.9-1.4h1.4l-0.9-1.4l0.9-1.4h-1.4L31,58
		l-1.1,1.4h-1.4l0.9,1.4l-0.9,1.4h1.4L31,63.6z M55.7,71.8l0.9-1.4H58L57.4,69l0.6-1.4h-1.4l-0.9-1.4l-0.9,1.4h-1.7L54,69l-0.9,1.4
		h1.7L55.7,71.8z M45.2,76.4l0.9-1.7h1.4l-0.6-1.4l0.6-1.1h-1.4l-0.9-1.7l-0.9,1.7h-1.7l0.9,1.1l-0.9,1.4h1.7L45.2,76.4z M17.4,78.6
		H8.9l16.5-12.5l2.3-1.7H15.5l9.1-6c8.2-2.6,15.3-6.5,21-11.4l0,0c2.6-2.6,5.1-5.1,7.1-8l6.2,6.2h-6.5h0.3l3.4,3.1
		c-4.5,8-10.5,14.8-17.9,20.2C32.2,72.9,25.4,76.4,17.4,78.6z M57.7,49.7l5.4,4.5h-8.2C55.7,52.8,56.9,51.1,57.7,49.7z M30.5,54.2
		H20.3l10.8-8.8h0.3h-6.5l8.5-8.8l2-2.3H32l4.8-8.5l5.1-8.8l4.8,8.8l5.1,8.5h-3.7l2.3,2.3l0.9,1.1c-2,2.8-4.3,5.4-7.1,8l0,0
		C40.4,49.1,35.6,51.9,30.5,54.2z"/>
	<polygon points="41.8,17.3 43.8,13.9 46.9,13.9 45.2,11.1 46.9,8.2 43.8,8.2 41.8,4.8 39.8,8.2 36.4,8.2 38.1,11.1 36.4,13.9 
		39.8,13.9 	"/>
</g>
</svg>
